mips_dd_tb0_colab.vcd
$date
	Fri Aug 20 13:03:04 2021
$end
$version
	Icarus Verilog
$end
$timescale
	1s
$end
$scope module Mips_TB $end
$var wire 32 ! reg_out_data [31:0] $end
$var reg 1 " clock $end
$var reg 5 # reg_out_id [4:0] $end
$var reg 1 $ reset $end
$var integer 32 % cur_time [31:0] $end
$scope module mips $end
$var wire 1 " clock $end
$var wire 1 & fetch_ram_load $end
$var wire 1 ' mem_ram_load $end
$var wire 5 ( reg_out_id [4:0] $end
$var wire 1 $ reset $end
$var wire 1 ) wb_reg_en $end
$var wire 32 * wb_reg_data [31:0] $end
$var wire 5 + wb_reg_addr [4:0] $end
$var wire 32 , reg_out_data [31:0] $end
$var wire 32 - reg_out_4 [31:0] $end
$var wire 32 . reg_out_3 [31:0] $end
$var wire 32 / reg_out_2 [31:0] $end
$var wire 32 0 reg_out_1 [31:0] $end
$var wire 32 1 reg_out_0 [31:0] $end
$var wire 32 2 reg_iss_datab [31:0] $end
$var wire 32 3 reg_iss_dataa [31:0] $end
$var wire 32 4 reg_id_datab [31:0] $end
$var wire 32 5 reg_id_dataa [31:0] $end
$var wire 32 6 reg_id_ass_datab [31:0] $end
$var wire 32 7 reg_id_ass_dataa [31:0] $end
$var wire 1 8 mul_wb_writereg $end
$var wire 32 9 mul_wb_wbvalue [31:0] $end
$var wire 5 : mul_wb_regdest [4:0] $end
$var wire 1 ; mul_wb_oper $end
$var wire 1 < mem_wb_writereg $end
$var wire 32 = mem_wb_wbvalue [31:0] $end
$var wire 5 > mem_wb_regdest [4:0] $end
$var wire 1 ? mem_wb_oper $end
$var wire 1 @ iss_stall $end
$var wire 5 A iss_reg_addrb [4:0] $end
$var wire 5 B iss_reg_addra [4:0] $end
$var wire 1 C iss_mul_oper $end
$var wire 1 D iss_mem_oper $end
$var wire 1 E iss_ex_writereg $end
$var wire 1 F iss_ex_writeov $end
$var wire 1 G iss_ex_writemem $end
$var wire 1 H iss_ex_unsig $end
$var wire 2 I iss_ex_shiftop [1:0] $end
$var wire 5 J iss_ex_shiftamt [4:0] $end
$var wire 1 K iss_ex_selwsource $end
$var wire 1 L iss_ex_selimregb $end
$var wire 1 M iss_ex_selalushift $end
$var wire 5 N iss_ex_regdest [4:0] $end
$var wire 32 O iss_ex_regb [31:0] $end
$var wire 32 P iss_ex_rega [31:0] $end
$var wire 1 Q iss_ex_readmem $end
$var wire 32 R iss_ex_imedext [31:0] $end
$var wire 3 S iss_ex_aluop [2:0] $end
$var wire 1 T iss_am_oper $end
$var wire 32 U if_id_nextpc [31:0] $end
$var wire 32 V if_id_instruc [31:0] $end
$var wire 1 W id_stall $end
$var wire 5 X id_reg_addrb [4:0] $end
$var wire 5 Y id_reg_addra [4:0] $end
$var wire 1 Z id_iss_writereg $end
$var wire 1 [ id_iss_writeov $end
$var wire 1 \ id_iss_writemem $end
$var wire 1 ] id_iss_unsig $end
$var wire 2 ^ id_iss_shiftop [1:0] $end
$var wire 1 _ id_iss_selwsource $end
$var wire 1 ` id_iss_selregdest $end
$var wire 1 a id_iss_selimregb $end
$var wire 1 b id_iss_selalushift $end
$var wire 5 c id_iss_regdest [4:0] $end
$var wire 1 d id_iss_readmem $end
$var wire 6 e id_iss_op [5:0] $end
$var wire 32 f id_iss_imedext [31:0] $end
$var wire 6 g id_iss_funct [5:0] $end
$var wire 3 h id_iss_aluop [2:0] $end
$var wire 5 i id_iss_addrb [4:0] $end
$var wire 5 j id_iss_addra [4:0] $end
$var wire 2 k id_if_selpctype [1:0] $end
$var wire 1 l id_if_selpcsource $end
$var wire 32 m id_if_rega [31:0] $end
$var wire 32 n id_if_pcindex [31:0] $end
$var wire 32 o id_if_pcimd2ext [31:0] $end
$var wire 1 p id_hd_check_b $end
$var wire 1 q id_hd_check_a $end
$var wire 5 r id_hd_ass_addrb [4:0] $end
$var wire 5 s id_hd_ass_addra [4:0] $end
$var wire 1 t id_ass_waw_write_writereg $end
$var wire 5 u id_ass_waw_write_addr [4:0] $end
$var wire 1 v am_wb_writereg $end
$var wire 32 w am_wb_wbvalue [31:0] $end
$var wire 5 x am_wb_regdest [4:0] $end
$var wire 1 y am_wb_oper $end
$scope module ALUMISC $end
$var wire 1 " clock $end
$var wire 1 $ reset $end
$var wire 32 z result [31:0] $end
$var wire 32 { mux_imregb [31:0] $end
$var wire 1 E iss_am_writereg $end
$var wire 1 F iss_am_writeov $end
$var wire 1 H iss_am_unsig $end
$var wire 2 | iss_am_shiftop [1:0] $end
$var wire 5 } iss_am_shiftamt [4:0] $end
$var wire 1 L iss_am_selimregb $end
$var wire 1 M iss_am_selalushift $end
$var wire 5 ~ iss_am_regdest [4:0] $end
$var wire 32 !" iss_am_regb [31:0] $end
$var wire 32 "" iss_am_rega [31:0] $end
$var wire 1 T iss_am_oper $end
$var wire 32 #" iss_am_imedext [31:0] $end
$var wire 3 $" iss_am_aluop [2:0] $end
$var wire 1 %" aluov $end
$var wire 32 &" aluout [31:0] $end
$var reg 1 y am_wb_oper $end
$var reg 5 '" am_wb_regdest [4:0] $end
$var reg 32 (" am_wb_wbvalue [31:0] $end
$var reg 1 v am_wb_writereg $end
$scope module ALU $end
$var wire 32 )" aluout [31:0] $end
$var wire 32 *" b [31:0] $end
$var wire 1 %" overflow $end
$var wire 1 H unsig $end
$var wire 3 +" op [2:0] $end
$var wire 32 ," a [31:0] $end
$var reg 32 -" aluout_reg [31:0] $end
$var reg 1 ." overflow_reg $end
$upscope $end
$scope module SHIFTER $end
$var wire 32 /" result [31:0] $end
$var wire 2 0" shiftop [1:0] $end
$var wire 5 1" shiftamt [4:0] $end
$var wire 32 2" in [31:0] $end
$var reg 32 3" result_reg [31:0] $end
$upscope $end
$upscope $end
$scope module DECODE $end
$var wire 1 " clock $end
$var wire 1 t id_ass_waw_write_writereg $end
$var wire 5 4" id_hd_ass_addra [4:0] $end
$var wire 5 5" id_hd_ass_addrb [4:0] $end
$var wire 1 q id_hd_check_a $end
$var wire 1 p id_hd_check_b $end
$var wire 32 6" id_if_rega [31:0] $end
$var wire 2 7" id_if_selpctype [1:0] $end
$var wire 1 $ reset $end
$var wire 1 8" writereg $end
$var wire 1 9" writeov $end
$var wire 1 :" writemem $end
$var wire 1 ;" unsig $end
$var wire 2 <" shiftop [1:0] $end
$var wire 1 =" selwsource $end
$var wire 1 >" selregdest $end
$var wire 2 ?" selpctype [1:0] $end
$var wire 1 @" selimregb $end
$var wire 2 A" selbrjumpz [1:0] $end
$var wire 1 B" selalushift $end
$var wire 32 C" reg_id_ass_datab [31:0] $end
$var wire 32 D" reg_id_ass_dataa [31:0] $end
$var wire 1 E" readmem $end
$var wire 1 @ iss_stall $end
$var wire 32 F" if_id_nextpc [31:0] $end
$var wire 32 G" if_id_instruc [31:0] $end
$var wire 1 W id_stall $end
$var wire 5 H" id_reg_addrb [4:0] $end
$var wire 5 I" id_reg_addra [4:0] $end
$var wire 32 J" id_if_pcindex [31:0] $end
$var wire 32 K" id_if_pcimd2ext [31:0] $end
$var wire 5 L" id_ass_waw_write_addr [4:0] $end
$var wire 1 M" compout $end
$var wire 3 N" compop [2:0] $end
$var wire 3 O" aluop [2:0] $end
$var reg 1 P" discard_instruction $end
$var reg 1 l id_if_selpcsource $end
$var reg 5 Q" id_iss_addra [4:0] $end
$var reg 5 R" id_iss_addrb [4:0] $end
$var reg 3 S" id_iss_aluop [2:0] $end
$var reg 6 T" id_iss_funct [5:0] $end
$var reg 32 U" id_iss_imedext [31:0] $end
$var reg 6 V" id_iss_op [5:0] $end
$var reg 1 d id_iss_readmem $end
$var reg 5 W" id_iss_regdest [4:0] $end
$var reg 1 b id_iss_selalushift $end
$var reg 1 a id_iss_selimregb $end
$var reg 1 ` id_iss_selregdest $end
$var reg 1 _ id_iss_selwsource $end
$var reg 2 X" id_iss_shiftop [1:0] $end
$var reg 1 ] id_iss_unsig $end
$var reg 1 \ id_iss_writemem $end
$var reg 1 [ id_iss_writeov $end
$var reg 1 Z id_iss_writereg $end
$scope module COMPARATOR $end
$var wire 1 M" compout $end
$var wire 3 Y" op [2:0] $end
$var wire 32 Z" b [31:0] $end
$var wire 32 [" a [31:0] $end
$var reg 1 \" compout_reg $end
$upscope $end
$scope module CONTROL $end
$var wire 6 ]" fn [5:0] $end
$var wire 6 ^" op [5:0] $end
$var wire 1 8" writereg $end
$var wire 1 9" writeov $end
$var wire 1 :" writemem $end
$var wire 1 ;" unsig $end
$var wire 2 _" shiftop [1:0] $end
$var wire 1 =" selwsource $end
$var wire 1 >" selregdest $end
$var wire 2 `" selpctype [1:0] $end
$var wire 1 @" selimregb $end
$var wire 2 a" selbrjumpz [1:0] $end
$var wire 1 B" selalushift $end
$var wire 13 b" sel [12:0] $end
$var wire 1 E" readmem $end
$var wire 3 c" compop [2:0] $end
$var wire 3 d" aluop [2:0] $end
$var reg 21 e" out [20:0] $end
$upscope $end
$upscope $end
$scope module FETCH $end
$var wire 1 " clock $end
$var wire 1 & fetch_ram_load $end
$var wire 32 f" id_if_pcimd2ext [31:0] $end
$var wire 32 g" id_if_pcindex [31:0] $end
$var wire 32 h" id_if_rega [31:0] $end
$var wire 1 l id_if_selpcsource $end
$var wire 2 i" id_if_selpctype [1:0] $end
$var wire 1 $ reset $end
$var wire 32 j" instr_data [31:0] $end
$var wire 7 k" instr_addr [6:0] $end
$var wire 1 W id_stall $end
$var reg 32 l" if_id_instruc [31:0] $end
$var reg 32 m" if_id_nextpc [31:0] $end
$var reg 32 n" pc [31:0] $end
$scope module instr_ram $end
$var wire 7 o" addr [6:0] $end
$var wire 1 " clock $end
$var wire 32 p" data_in [31:0] $end
$var wire 1 q" data_load $end
$var wire 32 r" data_out [31:0] $end
$var wire 1 & instr_load $end
$var wire 1 $ reset $end
$var wire 1 s" wre $end
$var integer 32 t" i [31:0] $end
$upscope $end
$upscope $end
$scope module ISSUE $end
$var wire 1 " clock $end
$var wire 1 u" enablewrite $end
$var wire 5 v" id_ass_waw_write_addr [4:0] $end
$var wire 1 t id_ass_waw_write_writereg $end
$var wire 5 w" id_hd_ass_addra [4:0] $end
$var wire 5 x" id_hd_ass_addrb [4:0] $end
$var wire 1 q id_hd_check_a $end
$var wire 1 p id_hd_check_b $end
$var wire 5 y" id_iss_addra [4:0] $end
$var wire 5 z" id_iss_addrb [4:0] $end
$var wire 3 {" id_iss_aluop [2:0] $end
$var wire 6 |" id_iss_funct [5:0] $end
$var wire 32 }" id_iss_imedext [31:0] $end
$var wire 6 ~" id_iss_op [5:0] $end
$var wire 1 d id_iss_readmem $end
$var wire 5 !# id_iss_regdest [4:0] $end
$var wire 1 b id_iss_selalushift $end
$var wire 1 a id_iss_selimregb $end
$var wire 1 ` id_iss_selregdest $end
$var wire 1 _ id_iss_selwsource $end
$var wire 2 "# id_iss_shiftop [1:0] $end
$var wire 1 ] id_iss_unsig $end
$var wire 1 \ id_iss_writemem $end
$var wire 1 [ id_iss_writeov $end
$var wire 1 Z id_iss_writereg $end
$var wire 1 T iss_am_oper $end
$var wire 1 D iss_mem_oper $end
$var wire 1 C iss_mul_oper $end
$var wire 5 ## iss_reg_addra [4:0] $end
$var wire 5 $# iss_reg_addrb [4:0] $end
$var wire 1 $ reset $end
$var wire 5 %# writeaddr [4:0] $end
$var wire 32 &# sb_haz_column [31:0] $end
$var wire 2 '# registerunit [1:0] $end
$var wire 32 (# reg_iss_datab [31:0] $end
$var wire 32 )# reg_iss_dataa [31:0] $end
$var wire 1 @ iss_stall $end
$var wire 2 *# iss_ass_unit_b [1:0] $end
$var wire 2 +# iss_ass_unit_a [1:0] $end
$var wire 5 ,# iss_ass_row_b [4:0] $end
$var wire 5 -# iss_ass_row_a [4:0] $end
$var wire 1 .# iss_ass_pending_b $end
$var wire 1 /# iss_ass_pending_a $end
$var wire 2 0# id_ass_waw_write_unit [1:0] $end
$var wire 5 1# id_ass_waw_write_row [4:0] $end
$var wire 1 2# id_ass_waw_write_pending $end
$var wire 2 3# id_ass_unit_b [1:0] $end
$var wire 2 4# id_ass_unit_a [1:0] $end
$var wire 5 5# id_ass_row_b [4:0] $end
$var wire 5 6# id_ass_row_a [4:0] $end
$var wire 1 7# id_ass_pending_b $end
$var wire 1 8# id_ass_pending_a $end
$var wire 1 W hd_id_stall $end
$var reg 2 9# functional_unit [1:0] $end
$var reg 3 :# iss_ex_aluop [2:0] $end
$var reg 32 ;# iss_ex_imedext [31:0] $end
$var reg 1 Q iss_ex_readmem $end
$var reg 32 <# iss_ex_rega [31:0] $end
$var reg 32 =# iss_ex_regb [31:0] $end
$var reg 5 ># iss_ex_regdest [4:0] $end
$var reg 1 M iss_ex_selalushift $end
$var reg 1 L iss_ex_selimregb $end
$var reg 1 K iss_ex_selwsource $end
$var reg 5 ?# iss_ex_shiftamt [4:0] $end
$var reg 2 @# iss_ex_shiftop [1:0] $end
$var reg 1 H iss_ex_unsig $end
$var reg 1 G iss_ex_writemem $end
$var reg 1 F iss_ex_writeov $end
$var reg 1 E iss_ex_writereg $end
$var reg 1 A# prev_stall $end
$scope module HDETECTOR $end
$var wire 5 B# id_ass_addr_a [4:0] $end
$var wire 5 C# id_ass_addr_b [4:0] $end
$var wire 1 t id_ass_waw_write_check $end
$var wire 1 q id_check_a $end
$var wire 1 p id_check_b $end
$var wire 1 W id_stalled $end
$var wire 5 D# iss_ass_writeaddr [4:0] $end
$var wire 1 u" iss_ass_writereg $end
$var wire 1 E# iss_check_a $end
$var wire 1 ` iss_check_b $end
$var wire 1 @ iss_stalled $end
$var wire 32 F# sb_haz_column [31:0] $end
$var wire 5 G# iss_ass_row_b [4:0] $end
$var wire 5 H# iss_ass_row_a [4:0] $end
$var wire 1 .# iss_ass_pending_b $end
$var wire 1 /# iss_ass_pending_a $end
$var wire 5 I# id_ass_waw_write_row [4:0] $end
$var wire 1 2# id_ass_waw_write_pending $end
$var wire 5 J# id_ass_row_b [4:0] $end
$var wire 5 K# id_ass_row_a [4:0] $end
$var wire 1 7# id_ass_pending_b $end
$var wire 1 8# id_ass_pending_a $end
$upscope $end
$scope module SB $end
$var wire 1 " clock $end
$var wire 1 u" enablewrite $end
$var wire 5 L# id_ass_addr_a [4:0] $end
$var wire 5 M# id_ass_addr_b [4:0] $end
$var wire 5 N# id_ass_waw_write_addr [4:0] $end
$var wire 5 O# iss_ass_addr_a [4:0] $end
$var wire 5 P# iss_ass_addr_b [4:0] $end
$var wire 2 Q# registerunit [1:0] $end
$var wire 1 $ reset $end
$var wire 5 R# writeaddr [4:0] $end
$var wire 32 S# sb_haz_column [31:0] $end
$var wire 2 T# iss_ass_unit_b [1:0] $end
$var wire 2 U# iss_ass_unit_a [1:0] $end
$var wire 5 V# iss_ass_row_b [4:0] $end
$var wire 5 W# iss_ass_row_a [4:0] $end
$var wire 1 .# iss_ass_pending_b $end
$var wire 1 /# iss_ass_pending_a $end
$var wire 2 X# id_ass_waw_write_unit [1:0] $end
$var wire 5 Y# id_ass_waw_write_row [4:0] $end
$var wire 1 2# id_ass_waw_write_pending $end
$var wire 2 Z# id_ass_unit_b [1:0] $end
$var wire 2 [# id_ass_unit_a [1:0] $end
$var wire 5 \# id_ass_row_b [4:0] $end
$var wire 5 ]# id_ass_row_a [4:0] $end
$var wire 1 7# id_ass_pending_b $end
$var wire 1 8# id_ass_pending_a $end
$var reg 6 ^# i [5:0] $end
$upscope $end
$upscope $end
$scope module MEM $end
$var wire 1 " clock $end
$var wire 32 _# iss_mem_imedext [31:0] $end
$var wire 1 D iss_mem_oper $end
$var wire 1 Q iss_mem_readmem $end
$var wire 32 `# iss_mem_rega [31:0] $end
$var wire 32 a# iss_mem_regb [31:0] $end
$var wire 5 b# iss_mem_regdest [4:0] $end
$var wire 1 G iss_mem_writemem $end
$var wire 1 E iss_mem_writereg $end
$var wire 1 ' mem_ram_load $end
$var wire 1 ? mem_wb_oper $end
$var wire 1 $ reset $end
$var wire 1 < mem_wb_writereg $end
$var wire 32 c# mem_wb_wbvalue [31:0] $end
$var wire 5 d# mem_wb_regdest [4:0] $end
$var wire 1 e# m0_m1_writereg $end
$var wire 1 f# m0_m1_writemem $end
$var wire 5 g# m0_m1_regdest [4:0] $end
$var wire 32 h# m0_m1_regb [31:0] $end
$var wire 1 i# m0_m1_readmem $end
$var wire 1 j# m0_m1_oper $end
$var wire 32 k# m0_m1_data_addr [31:0] $end
$scope module MEM_0 $end
$var wire 1 " clock $end
$var wire 32 l# mem_m0_imedext [31:0] $end
$var wire 1 D mem_m0_oper $end
$var wire 1 Q mem_m0_readmem $end
$var wire 32 m# mem_m0_rega [31:0] $end
$var wire 32 n# mem_m0_regb [31:0] $end
$var wire 5 o# mem_m0_regdest [4:0] $end
$var wire 1 G mem_m0_writemem $end
$var wire 1 E mem_m0_writereg $end
$var wire 1 $ reset $end
$var reg 32 p# m0_m1_data_addr [31:0] $end
$var reg 1 j# m0_m1_oper $end
$var reg 1 i# m0_m1_readmem $end
$var reg 32 q# m0_m1_regb [31:0] $end
$var reg 5 r# m0_m1_regdest [4:0] $end
$var reg 1 f# m0_m1_writemem $end
$var reg 1 e# m0_m1_writereg $end
$upscope $end
$scope module MEM_1 $end
$var wire 1 " clock $end
$var wire 1 s# data_wre $end
$var wire 32 t# m0_m1_data_addr [31:0] $end
$var wire 1 j# m0_m1_oper $end
$var wire 1 i# m0_m1_readmem $end
$var wire 32 u# m0_m1_regb [31:0] $end
$var wire 5 v# m0_m1_regdest [4:0] $end
$var wire 1 f# m0_m1_writemem $end
$var wire 1 e# m0_m1_writereg $end
$var wire 1 ' mem_ram_load $end
$var wire 1 $ reset $end
$var wire 32 w# data_data_out [31:0] $end
$var wire 7 x# data_addr [6:0] $end
$var reg 5 y# m1_mem_regdest [4:0] $end
$var reg 32 z# m1_mem_wbvalue [31:0] $end
$var reg 1 < m1_mem_writereg $end
$scope module data_ram $end
$var wire 7 {# addr [6:0] $end
$var wire 1 " clock $end
$var wire 32 |# data_in [31:0] $end
$var wire 1 ' data_load $end
$var wire 32 }# data_out [31:0] $end
$var wire 1 ~# instr_load $end
$var wire 1 $ reset $end
$var wire 1 s# wre $end
$var integer 32 !$ i [31:0] $end
$upscope $end
$upscope $end
$upscope $end
$scope module MULT $end
$var wire 1 " clock $end
$var wire 1 C iss_mul_oper $end
$var wire 32 "$ iss_mul_rega [31:0] $end
$var wire 32 #$ iss_mul_regb [31:0] $end
$var wire 5 $$ iss_mul_regdest [4:0] $end
$var wire 1 ; mul_wb_oper $end
$var wire 1 $ reset $end
$var wire 1 8 mul_wb_writereg $end
$var wire 32 %$ mul_wb_wbvalue [31:0] $end
$var wire 5 &$ mul_wb_regdest [4:0] $end
$var wire 5 '$ m2_m3_regdest [4:0] $end
$var wire 1 ($ m2_m3_oper $end
$var wire 64 )$ m2_m3_multres [63:0] $end
$var wire 1 *$ m2_m3_iszero $end
$var wire 1 +$ m2_m3_ispositive $end
$var wire 5 ,$ m1_m2_regdest [4:0] $end
$var wire 32 -$ m1_m2_regb [31:0] $end
$var wire 32 .$ m1_m2_rega [31:0] $end
$var wire 1 /$ m1_m2_oper $end
$var wire 1 0$ m1_m2_iszero $end
$var wire 1 1$ m1_m2_ispositive $end
$var wire 5 2$ m0_m1_regdest [4:0] $end
$var wire 32 3$ m0_m1_regb [31:0] $end
$var wire 32 4$ m0_m1_rega [31:0] $end
$var wire 1 5$ m0_m1_oper $end
$var wire 1 6$ m0_m1_iszero $end
$var wire 1 7$ m0_m1_ispositive $end
$scope module MULT_0 $end
$var wire 1 " clock $end
$var wire 1 C mul_m0_oper $end
$var wire 32 8$ mul_m0_rega [31:0] $end
$var wire 32 9$ mul_m0_regb [31:0] $end
$var wire 5 :$ mul_m0_regdest [4:0] $end
$var wire 1 $ reset $end
$var reg 1 7$ m0_m1_ispositive $end
$var reg 1 6$ m0_m1_iszero $end
$var reg 1 5$ m0_m1_oper $end
$var reg 32 ;$ m0_m1_rega [31:0] $end
$var reg 32 <$ m0_m1_regb [31:0] $end
$var reg 5 =$ m0_m1_regdest [4:0] $end
$upscope $end
$scope module MULT_1 $end
$var wire 1 " clock $end
$var wire 1 7$ m0_m1_ispositive $end
$var wire 1 6$ m0_m1_iszero $end
$var wire 1 5$ m0_m1_oper $end
$var wire 32 >$ m0_m1_rega [31:0] $end
$var wire 32 ?$ m0_m1_regb [31:0] $end
$var wire 5 @$ m0_m1_regdest [4:0] $end
$var wire 1 $ reset $end
$var reg 1 1$ m1_m2_ispositive $end
$var reg 1 0$ m1_m2_iszero $end
$var reg 1 /$ m1_m2_oper $end
$var reg 32 A$ m1_m2_rega [31:0] $end
$var reg 32 B$ m1_m2_regb [31:0] $end
$var reg 5 C$ m1_m2_regdest [4:0] $end
$upscope $end
$scope module MULT_2 $end
$var wire 1 " clock $end
$var wire 1 1$ m1_m2_ispositive $end
$var wire 1 0$ m1_m2_iszero $end
$var wire 1 /$ m1_m2_oper $end
$var wire 32 D$ m1_m2_rega [31:0] $end
$var wire 32 E$ m1_m2_regb [31:0] $end
$var wire 5 F$ m1_m2_regdest [4:0] $end
$var wire 1 $ reset $end
$var reg 1 +$ m2_m3_ispositive $end
$var reg 1 *$ m2_m3_iszero $end
$var reg 64 G$ m2_m3_multres [63:0] $end
$var reg 1 ($ m2_m3_oper $end
$var reg 5 H$ m2_m3_regdest [4:0] $end
$upscope $end
$scope module MULT_3 $end
$var wire 1 " clock $end
$var wire 1 +$ m2_m3_ispositive $end
$var wire 1 *$ m2_m3_iszero $end
$var wire 64 I$ m2_m3_multres [63:0] $end
$var wire 1 ($ m2_m3_oper $end
$var wire 5 J$ m2_m3_regdest [4:0] $end
$var wire 1 $ reset $end
$var wire 33 K$ upper_bits [32:0] $end
$var wire 32 L$ lower_bits [31:0] $end
$var reg 5 M$ m3_mul_regdest [4:0] $end
$var reg 32 N$ m3_mul_wbvalue [31:0] $end
$var reg 1 8 m3_mul_writereg $end
$upscope $end
$upscope $end
$scope module REGISTERS $end
$var wire 5 O$ addr_iss_a [4:0] $end
$var wire 5 P$ addr_iss_b [4:0] $end
$var wire 5 Q$ addra [4:0] $end
$var wire 5 R$ addrb [4:0] $end
$var wire 32 S$ ass_data_iss_a [31:0] $end
$var wire 32 T$ ass_data_iss_b [31:0] $end
$var wire 32 U$ ass_dataa [31:0] $end
$var wire 32 V$ ass_datab [31:0] $end
$var wire 1 " clock $end
$var wire 32 W$ reg_out_0 [31:0] $end
$var wire 32 X$ reg_out_1 [31:0] $end
$var wire 32 Y$ reg_out_2 [31:0] $end
$var wire 32 Z$ reg_out_3 [31:0] $end
$var wire 32 [$ reg_out_4 [31:0] $end
$var wire 32 \$ reg_out_data [31:0] $end
$var wire 5 ]$ reg_out_id [4:0] $end
$var wire 1 $ reset $end
$var wire 1 ) enc $end
$var wire 32 ^$ datac [31:0] $end
$var wire 5 _$ addrc [4:0] $end
$var reg 32 `$ dataa [31:0] $end
$var reg 32 a$ datab [31:0] $end
$var reg 6 b$ i [5:0] $end
$scope begin Reg $end
$upscope $end
$upscope $end
$scope module WRITEBACK $end
$var wire 1 y am_wb_oper $end
$var wire 5 c$ am_wb_regdest [4:0] $end
$var wire 32 d$ am_wb_wbvalue [31:0] $end
$var wire 1 v am_wb_writereg $end
$var wire 1 " clock $end
$var wire 1 ? mem_wb_oper $end
$var wire 5 e$ mem_wb_regdest [4:0] $end
$var wire 32 f$ mem_wb_wbvalue [31:0] $end
$var wire 1 < mem_wb_writereg $end
$var wire 1 ; mul_wb_oper $end
$var wire 5 g$ mul_wb_regdest [4:0] $end
$var wire 32 h$ mul_wb_wbvalue [31:0] $end
$var wire 1 8 mul_wb_writereg $end
$var wire 1 $ reset $end
$var wire 1 ) wb_reg_en $end
$var wire 32 i$ wb_reg_data [31:0] $end
$var wire 5 j$ wb_reg_addr [4:0] $end
$upscope $end
$upscope $end
$upscope $end
$enddefinitions $end
#10
$dumpvars
b0 j$
b0 i$
b0 h$
b0 g$
b0 f$
b0 e$
b0 d$
b0 c$
b100000 b$
b0 a$
b0 `$
b0 _$
b0 ^$
bx ]$
bx \$
b0 [$
b0 Z$
b0 Y$
b0 X$
b0 W$
b0 V$
b0 U$
b0 T$
b0 S$
b0 R$
b0 Q$
b0 P$
b0 O$
b0 N$
b0 M$
b0 L$
b0 K$
b0 J$
b0 I$
b0 H$
b0 G$
b0 F$
b0 E$
b0 D$
b0 C$
b0 B$
b0 A$
b0 @$
b0 ?$
b0 >$
b0 =$
b0 <$
b0 ;$
b0 :$
b0 9$
b0 8$
07$
06$
05$
b0 4$
b0 3$
b0 2$
01$
00$
0/$
b0 .$
b0 -$
b0 ,$
0+$
0*$
b0 )$
0($
b0 '$
b0 &$
b0 %$
b0 $$
b0 #$
b0 "$
b10000000 !$
0~#
b0 }#
b0 |#
b0 {#
b0 z#
b0 y#
b0 x#
b0 w#
b0 v#
b0 u#
b0 t#
0s#
b0 r#
b0 q#
b0 p#
b0 o#
b0 n#
b0 m#
b0 l#
b0 k#
0j#
0i#
b0 h#
b0 g#
0f#
0e#
b0 d#
b0 c#
b0 b#
b0 a#
b0 `#
b0 _#
b100000 ^#
b0 ]#
b0 \#
bz [#
bz Z#
b0 Y#
bz X#
b0 W#
b0 V#
bz U#
bz T#
b0 S#
b0 R#
b0 Q#
b0 P#
b0 O#
b0 N#
b0 M#
b0 L#
b0 K#
b0 J#
b0 I#
b0 H#
b0 G#
b0 F#
1E#
b0 D#
b0 C#
b0 B#
0A#
b0 @#
b0 ?#
b0 >#
b0 =#
b0 <#
b0 ;#
b0 :#
b0 9#
08#
07#
b0 6#
b0 5#
bz 4#
bz 3#
02#
b0 1#
bz 0#
0/#
0.#
b0 -#
b0 ,#
bz +#
bz *#
b0 )#
b0 (#
b0 '#
b0 &#
b0 %#
b0 $#
b0 ##
b0 "#
b0 !#
b0 ~"
b0 }"
b0 |"
b0 {"
b0 z"
b0 y"
b0 x"
b0 w"
b0 v"
0u"
b10000000 t"
0s"
b0 r"
0q"
bz p"
b1 o"
b100 n"
b100 m"
b0 l"
b1 k"
b0 j"
b0 i"
b0 h"
b0 g"
b100 f"
b0 e"
b0 d"
b0 c"
b0 b"
b0 a"
b0 `"
b0 _"
b0 ^"
b0 ]"
1\"
b0 ["
b0 Z"
b0 Y"
b0 X"
b0 W"
b0 V"
b0 U"
b0 T"
b0 S"
b0 R"
b0 Q"
0P"
b0 O"
b0 N"
1M"
b0 L"
b100 K"
b0 J"
b0 I"
b0 H"
b0 G"
b100 F"
0E"
b0 D"
b0 C"
0B"
b0 A"
0@"
b0 ?"
0>"
0="
b0 <"
0;"
0:"
09"
08"
b0 7"
b0 6"
b0 5"
b0 4"
b0 3"
b0 2"
b0 1"
b0 0"
b0 /"
0."
b0 -"
b0 ,"
b0 +"
b0 *"
b0 )"
b0 ("
b0 '"
b0 &"
0%"
b0 $"
b0 #"
b0 ""
b0 !"
b0 ~
b0 }
b0 |
b0 {
b0 z
0y
b0 x
b0 w
0v
b0 u
0t
b0 s
b0 r
0q
0p
b100 o
b0 n
b0 m
0l
b0 k
b0 j
b0 i
b0 h
b0 g
b0 f
b0 e
0d
b0 c
0b
0a
0`
0_
b0 ^
0]
0\
0[
0Z
b0 Y
b0 X
0W
b0 V
b100 U
1T
b0 S
b0 R
0Q
b0 P
b0 O
b0 N
0M
0L
0K
b0 J
b0 I
0H
0G
0F
0E
0D
0C
b0 B
b0 A
0@
0?
b0 >
b0 =
0<
0;
b0 :
b0 9
08
b0 7
b0 6
b0 5
b0 4
b0 3
b0 2
b0 1
b0 0
b0 /
b0 .
b0 -
bx ,
b0 +
b0 *
0)
bx (
0'
0&
b1001 %
1$
bx #
1"
bx !
$end
#12
0"
b1100 %
#15
b10 k"
b10 o"
1y
b1000 n"
b1000 o
b1000 K"
b1000 f"
b1000 U
b1000 F"
b1000 m"
b100000 ^#
1"
b1111 %
#18
0"
b10010 %
#21
b11 k"
b11 o"
b1100 n"
b1100 o
b1100 K"
b1100 f"
b1100 U
b1100 F"
b1100 m"
b100000 ^#
1"
b10101 %
#24
0"
b11000 %
#27
b100 k"
b100 o"
b10000 n"
b10000 o
b10000 K"
b10000 f"
b10000 U
b10000 F"
b10000 m"
b100000 ^#
1"
b11011 %
#30
0"
b11110 %
#33
b101 k"
b101 o"
b10100 n"
b10100 o
b10100 K"
b10100 f"
b10100 U
b10100 F"
b10100 m"
b100000 ^#
1"
b100001 %
#36
0"
b100100 %
#39
b110 k"
b110 o"
b11000 n"
b11000 o
b11000 K"
b11000 f"
b11000 U
b11000 F"
b11000 m"
b100000 ^#
1"
b100111 %
#42
0"
b101010 %
#45
b111 k"
b111 o"
b11100 n"
b11100 o
b11100 K"
b11100 f"
b11100 U
b11100 F"
b11100 m"
b100000 ^#
1"
b101101 %
#48
0"
b110000 %
#51
b1000 k"
b1000 o"
b100000 n"
b100000 o
b100000 K"
b100000 f"
b100000 U
b100000 F"
b100000 m"
b100000 ^#
1"
b110011 %
#54
0"
b110110 %
#57
b1001 k"
b1001 o"
b100100 n"
b100100 o
b100100 K"
b100100 f"
b100100 U
b100100 F"
b100100 m"
b100000 ^#
1"
b111001 %
#60
0"
b111100 %
#63
b1010 k"
b1010 o"
b101000 n"
b101000 o
b101000 K"
b101000 f"
b101000 U
b101000 F"
b101000 m"
b100000 ^#
1"
b111111 %
#66
0"
b1000010 %
#69
b1011 k"
b1011 o"
b101100 n"
b101100 o
b101100 K"
b101100 f"
b101100 U
b101100 F"
b101100 m"
b100000 ^#
1"
b1000101 %
#72
0"
b1001000 %
#75
b1100 k"
b1100 o"
b110000 n"
b110000 o
b110000 K"
b110000 f"
b110000 U
b110000 F"
b110000 m"
b100000 ^#
1"
b1001011 %
#78
0"
b1001110 %
